<svg width="292" height="198" viewBox="0 0 292 198" fill="none" xmlns="http://www.w3.org/2000/svg">
<path d="M99.2235 10.5958C99.2235 10.5958 95.374 19.2293 77.6172 16.2092" stroke="#535461" stroke-width="2" stroke-miterlimit="10"/>
<path d="M74.8196 42.5785C74.8196 42.5785 88.4835 28.9115 84.3065 23.9472" stroke="#535461" stroke-width="2" stroke-miterlimit="10"/>
<path opacity="0.1" d="M146 197.242C226.634 197.242 292 191.715 292 184.897C292 178.08 226.634 172.553 146 172.553C65.3664 172.553 0 178.08 0 184.897C0 191.715 65.3664 197.242 146 197.242Z" fill="#2DC84D"/>
<path d="M259.344 87.567C258.722 85.7459 257.824 83.438 257.115 82.8941C257.071 82.8593 257.024 82.83 256.973 82.807H256.886V80.5562L255.209 80.8236C254.943 80.0106 254.742 79.1776 254.608 78.3325C254.77 78.4942 254.976 78.6045 255.2 78.6494C255.424 78.6943 255.656 78.6719 255.867 78.5849C255.84 78.5398 255.816 78.4917 255.792 78.4436L255.867 78.4106C255.603 77.945 255.464 77.4193 255.462 76.884C255.475 76.3951 255.553 75.9102 255.693 75.4416C255.994 74.4049 256.501 73.4372 256.784 72.3945C256.964 71.7236 257.049 71.0306 257.036 70.336C257.046 69.1586 256.778 67.9954 256.255 66.9403C256.123 66.6357 255.916 66.3691 255.654 66.165C255.418 66.0341 255.175 65.9158 254.927 65.8104C254.51 65.5298 254.151 65.1717 253.869 64.7557C252.678 63.3049 251.083 62.2403 249.286 61.6965C248.818 61.5216 248.31 61.481 247.82 61.5793C246.693 61.8799 246.284 63.2772 245.371 64.0104C244.565 64.6565 243.46 64.7226 242.447 64.939C241.434 65.1553 240.415 65.5851 239.724 66.3664C239.248 66.9109 238.988 67.6113 238.994 68.3347C238.966 68.6726 239.026 69.012 239.167 69.3203C239.308 69.6286 239.526 69.8956 239.799 70.0956C240.111 70.3001 240.465 70.4331 240.834 70.485C241.203 70.537 241.58 70.5066 241.936 70.3961C241.658 71.358 241.581 72.3671 241.711 73.36C241.841 74.3529 242.175 75.3082 242.691 76.166C243.208 77.0238 243.896 77.7655 244.713 78.3447C245.53 78.9238 246.458 79.3279 247.438 79.5315L247.634 79.8831C248.238 81.0074 248.696 82.204 248.998 83.444C247.453 84.3185 245.767 85.1389 244.749 85.217C244.708 85.6152 244.633 86.0092 244.526 86.395C244.288 87.3624 243.831 88.2621 243.189 89.0244C241.804 90.581 235.574 102.349 235.574 102.349C235.574 102.349 235.379 102.818 235.057 103.617C231.19 104.092 224.876 104.777 223.115 104.425L216.204 97.8502C216.204 97.8502 213.968 99.5571 214.163 101.631L212.934 100.447C212.934 100.447 206.359 105.465 216.742 108.753L232.539 110.586C231.037 115.126 229.63 120.412 230.066 123.288H230.195C230.497 123.288 230.799 123.265 231.097 123.219L231.07 123.73L229.54 150.982C229.54 150.982 229.195 156.001 233.868 158.249C233.868 158.249 239.577 175.032 237.329 176.937C237.329 176.937 237.597 177.078 238.048 177.273L233.351 181.435C233.351 181.435 229.889 182.301 227.987 182.127C227.652 182.081 227.313 182.16 227.033 182.348C226.753 182.536 226.552 182.821 226.469 183.148C226.469 183.184 226.469 183.22 226.451 183.257V183.302C226.451 183.338 226.451 183.374 226.451 183.413C226.451 183.452 226.451 183.44 226.451 183.455C226.451 183.47 226.451 183.518 226.451 183.551C226.451 183.584 226.451 183.578 226.451 183.59C226.451 183.602 226.451 183.665 226.472 183.701V183.743C226.482 183.783 226.495 183.824 226.511 183.864L226.526 183.9C226.541 183.939 226.559 183.978 226.58 184.017V184.044C226.601 184.083 226.625 184.119 226.649 184.158L226.67 184.191C226.698 184.231 226.73 184.271 226.764 184.311L226.791 184.341C226.827 184.383 226.866 184.423 226.905 184.462L226.923 184.477L227.052 184.588L227.079 184.609C227.127 184.648 227.181 184.684 227.235 184.72L227.271 184.744C227.329 184.78 227.389 184.816 227.452 184.849H227.479L227.674 184.945H227.701L227.93 185.036L227.978 185.054L228.227 185.135H228.269L228.543 185.207H228.564L228.864 185.267H228.924L229.249 185.315H229.312L229.678 185.351C230.391 185.405 231.349 185.426 232.458 185.42C232.458 185.42 232.458 185.447 232.458 185.462C232.458 185.477 232.458 185.525 232.458 185.558V185.597C232.458 185.634 232.458 185.673 232.479 185.709V185.751C232.489 185.791 232.502 185.831 232.518 185.871L232.533 185.907C232.548 185.946 232.566 185.985 232.587 186.024V186.051C232.608 186.09 232.632 186.126 232.656 186.165L232.678 186.198C232.706 186.239 232.737 186.279 232.771 186.319L232.798 186.349C232.834 186.391 232.873 186.43 232.912 186.469L232.93 186.484L233.059 186.595L233.086 186.616C233.134 186.655 233.188 186.691 233.242 186.727L233.282 186.751C233.339 186.787 233.399 186.824 233.462 186.857H233.489L233.684 186.953H233.711L233.94 187.043L233.988 187.061L234.237 187.142H234.279L234.553 187.214H234.574L234.874 187.274H234.934L235.259 187.322H235.322L235.689 187.358C240.196 187.704 254.548 186.667 254.548 186.667V186.628V186.577C254.689 185.907 255.381 182.012 252.928 179.134C253.001 179.058 253.073 178.977 253.139 178.893C253.139 178.893 251.237 175.606 252.273 174.566C253.31 173.526 247.084 155.532 247.084 155.532C247.084 155.532 243.796 150.342 245.698 144.458C247.601 138.575 245.524 132.174 245.524 132.174C245.524 132.174 250.062 130.825 250.155 125.238C250.155 125.07 250.155 124.896 250.155 124.718C250.254 124.733 250.355 124.739 250.455 124.736C250.519 124.741 250.584 124.741 250.648 124.736C250.648 124.736 249.782 121.623 250.822 119.372C251.862 117.122 254.109 119.198 256.186 110.03C257.688 103.395 259.011 95.7617 259.627 92.0475C259.893 90.5529 259.796 89.0162 259.344 87.567ZM219.855 107.034L218.277 105.531C218.8 105.747 219.38 105.961 220.029 106.165L225.979 106.856C223.323 107.097 220.856 107.232 219.855 107.034Z" fill="url(#paint0_linear)"/>
<path d="M234.916 106.156C234.916 106.156 222.677 107.857 220.125 107.358L213.313 100.879C213.313 100.879 206.852 105.811 217.054 109.038L236.106 111.265L234.916 106.156Z" fill="#FDC2CC"/>
<path opacity="0.05" d="M234.916 106.156C234.916 106.156 222.677 107.857 220.125 107.358L213.313 100.879C213.313 100.879 206.852 105.811 217.054 109.038L236.106 111.265L234.916 106.156Z" fill="black"/>
<path d="M239.337 175.167L233.387 180.438C233.387 180.438 229.988 181.288 228.116 181.117C226.244 180.946 225.396 184.008 229.817 184.347C234.237 184.687 248.346 183.668 248.346 183.668C248.346 183.668 249.707 178.229 245.626 175.167H239.337Z" fill="#47465A"/>
<path opacity="0.05" d="M239.337 175.167L233.387 180.438C233.387 180.438 229.988 181.288 228.116 181.117C226.244 180.946 225.396 184.008 229.817 184.347C234.237 184.687 248.346 183.668 248.346 183.668C248.346 183.668 249.707 178.229 245.626 175.167H239.337Z" fill="black"/>
<path opacity="0.3" d="M248.559 181.315C248.549 181.935 248.478 182.552 248.346 183.157C248.346 183.157 234.222 184.176 229.817 183.837C227.692 183.674 226.788 182.881 226.625 182.121C226.433 182.992 227.202 184.146 229.817 184.347C234.237 184.687 248.346 183.668 248.346 183.668C248.511 182.895 248.583 182.105 248.559 181.315Z" fill="white"/>
<path d="M246.305 78.7802C246.305 78.7802 250.047 84.0511 248.685 87.6211C247.324 91.191 255.825 83.8798 255.825 83.8798C255.825 83.8798 253.106 79.1198 254.464 74.0202L246.305 78.7802Z" fill="#FDC2CC"/>
<path d="M245.287 177.207L239.337 182.484C239.337 182.484 235.938 183.335 234.066 183.163C232.194 182.992 231.343 186.048 235.767 186.391C240.19 186.733 254.296 185.712 254.296 185.712C254.296 185.712 255.657 180.273 251.576 177.21L245.287 177.207Z" fill="#47465A"/>
<path d="M246.987 176.017C246.101 177.111 244.851 177.52 243.544 177.595C240.572 177.736 237.299 176.017 237.299 176.017C239.508 174.148 233.9 157.657 233.9 157.657C229.312 155.448 229.651 150.517 229.651 150.517L231.154 123.751L231.529 117.028L236.289 114.138L240.043 117.016L243.601 119.748C243.832 120.617 243.981 121.505 244.045 122.401C244.457 128.649 239.52 130.118 239.52 130.118C239.52 130.118 241.56 136.408 239.691 142.187C237.822 147.965 241.052 153.065 241.052 153.065C241.052 153.065 247.174 170.744 246.161 171.765C245.148 172.787 246.987 176.017 246.987 176.017Z" fill="#B2B2B2"/>
<path opacity="0.05" d="M246.987 176.017C246.101 177.111 244.851 177.52 243.544 177.595C240.572 177.736 237.299 176.017 237.299 176.017C239.508 174.148 233.9 157.657 233.9 157.657C229.312 155.448 229.651 150.517 229.651 150.517L231.154 123.751L231.529 117.028L236.289 114.138L240.043 117.016L243.601 119.748C243.832 120.617 243.981 121.505 244.045 122.401C244.457 128.649 239.52 130.118 239.52 130.118C239.52 130.118 241.56 136.408 239.691 142.187C237.822 147.965 241.052 153.065 241.052 153.065C241.052 153.065 247.174 170.744 246.161 171.765C245.148 172.787 246.987 176.017 246.987 176.017Z" fill="#B2B2B2"/>
<path d="M252.937 178.058C250.047 181.628 243.249 178.058 243.249 178.058C243.388 177.932 243.491 177.773 243.55 177.595C244.797 174.205 239.343 157.999 239.343 157.999C234.754 155.79 234.234 150.52 234.234 150.52L233.032 123.279L232.876 119.751L240.028 117.019L242.224 116.181L249.536 121.782C249.852 122.941 250.01 124.137 250.004 125.337C249.914 130.834 245.467 132.159 245.467 132.159C245.467 132.159 247.507 138.448 245.638 144.227C243.769 150.006 246.999 155.105 246.999 155.105C246.999 155.105 253.121 172.784 252.108 173.806C251.095 174.827 252.937 178.058 252.937 178.058Z" fill="#B2B2B2"/>
<path opacity="0.1" d="M250.005 125.343C248.535 125.133 245.56 123.363 244.03 122.401C243.447 122.035 243.075 121.8 243.075 121.8C243.075 121.8 241.545 117.551 237.464 120.782C236.137 121.858 234.639 122.704 233.032 123.285C232.417 123.502 231.783 123.661 231.139 123.76L231.514 117.037L236.274 114.147L240.028 117.025L242.224 116.187L249.536 121.782C249.853 122.943 250.01 124.141 250.005 125.343Z" fill="black"/>
<path d="M259.206 92.7326C258.605 96.3807 257.301 103.878 255.825 110.399C253.785 119.414 251.576 117.368 250.554 119.58C249.533 121.791 250.383 124.851 250.383 124.851C248.682 125.022 243.072 121.281 243.072 121.281C243.072 121.281 241.542 117.031 237.461 120.262C233.381 123.492 230.15 123.321 230.15 123.321C229.3 117.711 235.589 102.751 235.589 102.751C235.589 102.751 241.717 91.191 243.063 89.6615C243.693 88.9121 244.142 88.0279 244.376 87.0771C244.48 86.6982 244.553 86.3112 244.592 85.9202C246.801 85.7489 252.243 82.0136 252.243 82.0136L256.492 81.3345V83.5432C256.542 83.5654 256.588 83.5937 256.631 83.6273C257.331 84.1622 258.211 86.431 258.821 88.219C259.319 89.669 259.451 91.2194 259.206 92.7326Z" fill="#2DC84D"/>
<path opacity="0.1" d="M255.825 85.7519C255.825 85.7519 251.405 82.1819 244.776 93.7423C238.147 105.303 236.617 103.431 236.617 103.431C236.617 103.431 237.978 108.539 237.296 109.552C237.296 109.552 241.885 109.212 243.586 109.552C245.287 109.891 255.825 96.6302 255.825 96.6302C255.825 96.6302 261.267 89.1506 255.825 85.7519Z" fill="black"/>
<path opacity="0.1" d="M255.657 85.0698C255.657 85.0698 251.237 81.5148 244.607 93.0602C237.978 104.606 236.452 102.751 236.452 102.751C236.452 102.751 241.717 108.53 243.417 108.861C245.118 109.191 255.657 95.939 255.657 95.939C255.657 95.939 261.093 88.4715 255.657 85.0698Z" fill="black"/>
<path opacity="0.1" d="M237.14 108.446C237.209 107.187 236.734 104.972 236.461 103.824C237.495 103.689 238.147 103.599 238.147 103.599L239.349 108.707L237.14 108.446Z" fill="black"/>
<path opacity="0.1" d="M254.635 74.3598L246.477 79.1108C246.82 79.6127 247.137 80.1323 247.426 80.6674C247.897 80.7633 248.376 80.8116 248.857 80.8116C251.035 80.8116 252.051 78.5248 253.364 76.9862C253.28 75.7602 254.272 75.7301 254.635 74.3598Z" fill="black"/>
<path d="M248.688 80.4811C252.632 80.4811 255.828 77.2844 255.828 73.3411C255.828 69.3978 252.632 66.2011 248.688 66.2011C244.745 66.2011 241.548 69.3978 241.548 73.3411C241.548 77.2844 244.745 80.4811 248.688 80.4811Z" fill="#FDC2CC"/>
<path opacity="0.1" d="M239.655 67.5654C240.376 66.8266 241.312 66.3352 242.33 66.162C243.321 65.9487 244.409 65.8826 245.202 65.2605C246.104 64.5423 246.501 63.178 247.606 62.8745C248.087 62.7778 248.586 62.8174 249.046 62.9887C250.813 63.5217 252.382 64.5677 253.553 65.9938C253.83 66.4024 254.181 66.7543 254.59 67.0305C254.835 67.134 255.073 67.2503 255.305 67.3791C255.56 67.58 255.76 67.8413 255.888 68.1393C256.686 69.7489 256.869 71.5938 256.405 73.3291C256.129 74.3538 255.63 75.3034 255.335 76.3341C255.041 77.3648 254.966 78.5098 255.507 79.4203C254.984 79.6877 254.323 79.3512 254.004 78.8643C253.686 78.3775 253.577 77.7765 253.403 77.2146C253.063 76.1092 252.426 75.1186 251.561 74.3508C251.026 73.876 250.059 73.5574 249.695 74.1705C249.551 74.4079 249.56 74.7084 249.436 74.9548C249.193 75.4356 248.49 75.5318 248.024 75.2553C247.575 74.9454 247.26 74.4775 247.141 73.9451C246.44 71.5771 245.247 70.0866 242.714 71.0993C241.771 71.478 240.659 71.7334 239.751 71.0843C238.555 70.2279 238.799 68.533 239.655 67.5654Z" fill="black"/>
<path d="M239.655 67.3911C240.376 66.6523 241.312 66.1609 242.33 65.9877C243.321 65.7744 244.409 65.7083 245.202 65.0862C246.104 64.368 246.501 63.0037 247.606 62.7002C248.087 62.6035 248.586 62.6431 249.046 62.8144C250.813 63.3474 252.382 64.3934 253.553 65.8195C253.83 66.2281 254.181 66.5801 254.59 66.8562C254.835 66.9597 255.073 67.076 255.305 67.2048C255.56 67.4057 255.76 67.667 255.888 67.9651C256.686 69.5746 256.869 71.4195 256.405 73.1548C256.129 74.1795 255.63 75.1291 255.335 76.1598C255.041 77.1905 254.966 78.3355 255.507 79.246C254.984 79.5134 254.323 79.1769 254.004 78.6901C253.686 78.2032 253.577 77.6022 253.403 77.0403C253.063 75.9349 252.426 74.9443 251.561 74.1765C251.026 73.7017 250.059 73.3832 249.695 73.9962C249.551 74.2336 249.56 74.5341 249.436 74.7805C249.193 75.2613 248.49 75.3575 248.024 75.081C247.575 74.7711 247.26 74.3032 247.141 73.7708C246.44 71.4028 245.247 69.9123 242.714 70.925C241.771 71.3037 240.659 71.5591 239.751 70.91C238.555 70.0566 238.799 68.3647 239.655 67.3911Z" fill="#B96B6B"/>
<path opacity="0.05" d="M256.646 83.6183H253.19C253.19 83.6183 246.389 87.017 246.221 86.8487C246.107 86.7346 245.055 86.9299 244.388 87.0711C244.492 86.6922 244.565 86.3052 244.604 85.9142C246.813 85.7429 252.255 82.0076 252.255 82.0076L256.504 81.3285V83.5372C256.555 83.5582 256.602 83.5855 256.646 83.6183Z" fill="black"/>
<path opacity="0.3" d="M254.509 183.356C254.499 183.975 254.428 184.592 254.296 185.198C254.296 185.198 240.172 186.216 235.767 185.877C233.642 185.715 232.738 184.921 232.575 184.161C232.383 185.033 233.152 186.186 235.767 186.388C240.187 186.727 254.296 185.709 254.296 185.709C254.461 184.936 254.533 184.146 254.509 183.356Z" fill="white"/>
<g opacity="0.05">
<path opacity="0.05" d="M235.851 120.091C233.558 121.894 231.53 122.648 230.198 122.948C230.198 123.075 230.222 123.201 230.24 123.321C230.24 123.321 233.471 123.492 237.552 120.262C238.184 119.72 238.931 119.33 239.736 119.12C238.856 118.696 237.576 118.723 235.851 120.091Z" fill="black"/>
<path opacity="0.05" d="M258.92 88.216C258.319 86.413 257.418 84.1592 256.73 83.6243C256.687 83.5907 256.641 83.5624 256.592 83.5402C256.592 83.5402 255.185 83.5883 255.23 83.6243C255.93 84.1592 256.61 86.2568 257.22 88.0448C257.711 89.4941 257.838 91.0422 257.589 92.5523C256.988 96.2004 255.684 103.698 254.209 110.219C252.168 119.234 249.959 117.188 248.938 119.399C248.102 121.202 248.52 123.588 248.7 124.391C249.428 124.691 250.059 124.881 250.467 124.838C250.467 124.838 249.617 121.779 250.639 119.568C251.66 117.356 253.869 119.396 255.909 110.387C257.385 103.869 258.683 96.3687 259.29 92.7206C259.539 91.2115 259.412 89.6645 258.92 88.216Z" fill="black"/>
</g>
<path d="M85.4063 182.725C85.4063 182.725 81.4998 182.995 79.0657 178.818C78.5936 177.975 78.0357 177.182 77.4009 176.453C76.6213 175.175 76.2163 173.704 76.2319 172.207C76.3671 169.106 73.1307 152.109 73.1307 152.109C73.1307 152.109 73.5364 145.633 70.297 141.592C68.1664 138.929 65.1012 131.296 63.2531 126.392C63.3775 126.503 63.5271 126.581 63.6889 126.62L63.6137 126.197L63.6889 126.215L62.7453 120.953C61.3545 119.353 60.1823 117.576 59.2594 115.667L59.4758 115.622L62.3396 115.021C62.3396 115.021 66.9944 108.41 67.2799 105.152L67.6585 105.17H68.1934C74.1164 105.041 81.0881 105.847 81.0881 105.847C81.0881 105.826 81.055 105.741 81.019 105.609C80.838 104.955 80.6985 104.289 80.6013 103.617L80.8687 103.599L83.5191 103.422C83.5191 103.422 92.6905 93.1714 89.3189 91.2812C85.9472 89.391 82.4403 99.7794 82.4403 99.7794L81.3074 99.9868L81.0069 100.044C81.037 99.9988 81.067 99.9567 81.1031 99.9147C81.1392 99.8726 66.129 99.2415 63.8361 95.5994C63.8361 95.5994 57.225 90.3376 56.9576 86.8307C56.8133 84.9706 55.6474 83.9819 54.5806 83.4651C53.7647 83.0763 52.8614 82.9074 51.9602 82.9752L48.865 83.1886L49.0844 83.5793H48.9972C48.8032 83.1344 48.6405 82.6765 48.5104 82.209H48.5735C48.5525 82.1128 48.5314 82.0166 48.5134 81.9085C49.4619 81.6846 50.3559 81.2726 51.1423 80.6971C51.9287 80.1215 52.5917 79.3939 53.0918 78.5575C53.592 77.721 53.9193 76.7928 54.0542 75.8276C54.1891 74.8624 54.129 73.8799 53.8774 72.9384C54.1773 72.9772 54.4815 72.9691 54.7789 72.9144C55.9148 72.68 56.7232 71.526 56.7532 70.3661C56.7532 70.291 56.7532 70.2158 56.7532 70.1407C56.7532 70.1407 56.7532 70.1107 56.7532 70.0956C56.7421 69.5145 56.6015 68.9432 56.3415 68.4233C56.0816 67.9035 55.7089 67.4482 55.2507 67.0906C54.6317 66.5767 53.8954 66.2101 53.3335 65.6392C52.6664 64.957 52.3028 64.0435 51.7829 63.2351C50.9161 61.9057 49.63 60.9041 48.1288 60.3893C47.0109 60.0107 45.6436 59.9686 44.7872 60.78C44.3454 61.1977 44.09 61.7957 43.5851 62.1473C42.8729 62.6551 41.9053 62.5049 41.0339 62.6071C39.4532 62.7934 38.0649 63.9203 37.3677 65.3537C36.9402 66.2589 36.7342 67.2529 36.7667 68.2535C36.7572 68.9405 36.839 69.6256 37.0101 70.291C37.1784 70.9551 37.4278 71.5951 37.6111 72.2533C37.9897 73.6235 38.0769 75.066 38.5126 76.4212C38.8078 77.4239 39.3959 78.3155 40.2015 78.9815L40.0722 79.5405C39.9881 79.5585 37.8876 80.0093 36.4331 83.1826C35.2852 85.6828 31.4027 88.2671 29.6958 89.3099C29.3774 89.5047 29.101 89.761 28.8827 90.0639C28.6645 90.3668 28.5088 90.7101 28.4247 91.0738C28.2608 91.8094 28.1881 92.5623 28.2083 93.3156C28.1783 94.9413 28.5088 97.1891 29.825 100.041C32.794 106.517 34.9516 109.357 34.9516 109.357C34.9516 109.357 35.1169 111.34 35.1259 113.431C35.1259 114.988 35.0117 116.539 34.6812 117.314C34.4017 117.969 34.3146 119.643 34.3206 121.551C34.3206 125.214 34.6812 129.995 34.6812 129.995C34.6812 129.995 35.7119 130.19 37.3106 130.425L38.3053 147.911C38.4302 150.029 37.7508 152.115 36.4031 153.753C35.7028 154.612 34.8948 155.378 33.999 156.031C31.1653 158.053 25.0951 179.368 25.0951 179.368C25.0951 179.368 25.3956 179.386 25.8824 179.425L24.0163 184.63C24.0163 184.63 31.4688 190.339 36.0064 188.78C36.4911 188.622 36.9995 188.55 37.5089 188.566C38.4104 188.566 40.3187 187.86 39.2519 186.926C37.3136 185.231 34.9907 182.665 33.4371 180.88C33.5836 180.95 33.7243 181.033 33.8578 181.126V181.084L33.9209 181.126C33.9209 181.126 33.9359 180.916 33.969 180.576L33.9029 180.555C34.0411 179.152 34.4738 175.624 35.3363 175.191C36.4151 174.65 44.3725 158.871 44.3725 158.871L52.3298 138.367C52.3298 138.367 58.6704 149.294 64.0645 151.181V155.739C64.0645 155.739 67.0335 169.229 68.1123 170.713C69.1911 172.198 68.1123 178.133 68.1123 178.133C68.3256 178.377 68.5701 178.592 68.8395 178.773L67.9771 183.662C67.9771 183.662 74.1825 183.392 84.7031 186.631C84.7302 186.637 88.778 184.888 85.4063 182.725ZM60.5847 112.166L59.2715 112.494L59.013 112.56C58.986 112.398 58.9679 112.301 58.9679 112.301C58.6673 112.436 58.3444 112.515 58.0153 112.533C57.5498 111.058 57.2811 109.528 57.216 107.983C57.216 107.983 56.4527 104.867 56.4107 102.349C56.4257 101.366 56.5729 100.51 56.9456 100.026L57.3843 100.062L57.6848 100.362L57.7058 100.383L57.8621 100.525L58.0244 100.672L58.0514 100.696L58.2287 100.849L58.2588 100.876L58.4391 101.03L58.4571 101.045L58.6584 101.21L58.7035 101.246L58.9169 101.417H58.9349L59.1452 101.582L59.1933 101.619L59.4247 101.796L59.4728 101.832L59.6952 101.994L59.7342 102.021L59.9867 102.202L60.0468 102.244L60.3112 102.427L60.3352 102.442L60.5937 102.613L60.6568 102.655L60.9362 102.833L60.9964 102.869L61.2578 103.028L61.3059 103.058L61.6064 103.232L61.6785 103.274L61.979 103.449H62.003L62.3036 103.608L62.3787 103.647L62.6972 103.806L62.7633 103.836L63.0638 103.974L63.1209 104.002L63.4545 104.146L63.5356 104.179L63.8842 104.317C61.6905 106.658 60.5847 112.166 60.5847 112.166Z" fill="url(#paint1_linear)"/>
<path d="M27.3159 176.21L24.8127 183.19C24.8127 183.19 31.6672 188.446 36.1207 187.358C36.7914 187.192 37.4749 187.081 38.1641 187.028C39.0866 186.959 40.6733 186.289 39.6937 185.432C36.5324 182.668 32.3193 177.532 32.3193 177.532L27.3159 176.21Z" fill="#4F4D59"/>
<path d="M68.9297 175.549L67.7457 182.265C67.7457 182.265 73.8038 182 84.0751 185.162C84.0751 185.162 88.0267 183.449 84.7332 181.342C84.7332 181.342 80.9138 181.607 78.5428 177.523C76.1718 173.439 74.7234 173.968 74.7234 173.968L68.9297 175.549Z" fill="#4F4D59"/>
<path d="M37.5871 126.825L38.747 147.259C38.8713 149.437 38.1488 151.579 36.7306 153.236C36.0895 153.997 35.359 154.678 34.555 155.265C31.7903 157.239 25.8644 178.046 25.8644 178.046C25.8644 178.046 32.5806 178.439 34.4227 179.759C34.4227 179.759 34.8164 174.491 35.8712 173.965C36.9259 173.439 44.694 158.038 44.694 158.038L52.468 138.01C52.468 138.01 58.6584 148.678 63.9263 150.52V154.997C63.9263 154.997 66.8231 168.165 67.8779 169.614C68.9327 171.062 67.8779 176.856 67.8779 176.856C67.8779 176.856 70.907 180.675 77.8847 176.591C77.8847 176.591 75.6459 174.088 75.7811 171.059C75.9164 168.03 72.7521 151.439 72.7521 151.439C72.7521 151.439 73.1457 145.129 69.9874 141.168C66.8291 137.207 61.5583 122.083 61.5583 122.083L57.9342 114.285L37.5871 126.825Z" fill="#313335"/>
<g opacity="0.1">
<path opacity="0.1" d="M27.1175 178.052C27.1175 178.052 33.0434 157.245 35.8081 155.271C36.658 154.649 37.4263 153.923 38.0949 153.11C39.4477 151.475 40.1278 149.386 39.9971 147.268L38.8372 126.834L58.2527 114.856L57.9883 114.288L37.6472 126.825L38.8071 147.259C38.9427 149.378 38.2669 151.469 36.9169 153.107C36.2483 153.92 35.48 154.646 34.6301 155.268C31.8655 157.242 25.9395 178.049 25.9395 178.049C25.9395 178.049 32.6558 178.442 34.4979 179.762C34.4979 179.762 34.5129 179.557 34.546 179.224C31.9496 178.337 27.1175 178.052 27.1175 178.052Z" fill="black"/>
<path opacity="0.1" d="M69.1281 176.868C69.1281 176.868 70.1828 171.074 69.1281 169.626C68.0733 168.177 65.1644 155.006 65.1644 155.006V150.529C59.9086 148.687 53.7182 138.01 53.7182 138.01L53.2584 139.212C55.0434 142.042 59.8064 149.071 63.9894 150.535V155.012C63.9894 155.012 66.8863 168.18 67.9411 169.629C68.9958 171.077 67.9411 176.871 67.9411 176.871C67.9411 176.871 69.4105 178.719 72.656 178.47C70.2369 178.277 69.1281 176.868 69.1281 176.868Z" fill="black"/>
</g>
<path d="M82.8941 103.911L80.3067 104.083L78.9424 104.173V100.867L80.7455 100.543L81.8543 100.341C81.8543 100.341 85.2771 90.2024 88.5706 92.0445C91.8641 93.8866 82.8941 103.911 82.8941 103.911Z" fill="#714B4F"/>
<path d="M41.4065 76.7849C41.4065 76.7849 39.6936 83.3689 39.1677 87.4528C38.6418 91.5366 51.4133 88.2431 51.4133 88.2431C51.4133 88.2431 46.5421 82.3171 49.3097 79.1558L41.4065 76.7849Z" fill="#714B4F"/>
<path d="M55.2477 104.176L55.5122 106.679L51.4313 106.415L47.3324 102.851L43.2516 91.4014L40.6192 87.3205L38.6418 84.8203L39.4322 81.7913C39.4322 81.7913 39.7928 82.0918 40.4028 82.5726C42.4072 84.1081 47.1131 87.2965 50.5508 86.416C50.7099 86.3764 50.8664 86.3272 51.0196 86.2688L56.1492 95.0886L55.2477 104.176Z" fill="#E6E6F0"/>
<path opacity="0.1" d="M40.484 80.9979C40.484 80.9979 38.3804 81.3916 36.929 84.5529C35.8141 86.984 32.0548 89.4902 30.375 90.5209C30.0547 90.7168 29.777 90.9749 29.5581 91.2799C29.3393 91.585 29.1838 91.9308 29.1009 92.2969C28.7613 93.7994 28.6321 96.5941 30.4772 100.621C33.374 106.931 35.4806 109.708 35.4806 109.708C35.4806 109.708 36.0064 116.019 35.2161 117.873C34.4258 119.727 35.2161 129.857 35.2161 129.857C35.2161 129.857 49.0393 132.489 53.6521 129.857C58.2648 127.225 57.6037 117.082 57.6037 117.082C57.6037 117.082 61.949 126.29 63.5296 126.563L62.6071 121.428C62.6071 121.428 57.4715 115.895 57.198 108.786C57.198 108.786 55.6173 102.334 56.9336 100.621C56.9336 100.621 79.1889 102.466 80.5051 100.885C80.5051 100.885 65.8886 100.227 63.6498 96.6782C63.6498 96.6782 57.198 91.5426 56.9336 88.1199C56.895 87.4778 56.6935 86.8562 56.348 86.3136C56.0026 85.771 55.5247 85.3253 54.9593 85.0187C54.0634 84.5094 53.0356 84.2802 52.0083 84.3606L49.0333 84.5649C49.0333 84.5649 54.1689 93.6522 53.9045 94.8362C53.64 96.0201 54.1689 105.633 54.1689 105.633C54.1689 105.633 48.255 92.8498 45.6316 91.4014C43.0082 89.953 39.9701 84.006 39.9701 84.006L40.496 81.0009" fill="black"/>
<path opacity="0.1" d="M55.2477 104.176L55.5122 106.679L51.4313 106.415L47.3324 102.851L43.2516 91.4014L40.6192 87.3205L38.6418 84.8203L39.4322 81.7913C39.4322 81.7913 39.7928 82.0918 40.4028 82.5726L40.2225 83.6183C40.2225 83.6183 43.2516 89.5653 45.884 91.0137C48.5164 92.4622 54.4424 105.237 54.4424 105.237C54.4424 105.237 53.9165 95.6205 54.1779 94.4395C54.3582 93.6341 52.0503 89.1957 50.5508 86.422C50.7099 86.3824 50.8664 86.3332 51.0196 86.2748L56.1492 95.0886L55.2477 104.176Z" fill="black"/>
<path opacity="0.1" d="M80.3008 104.086L78.9365 104.176V100.87L80.7395 100.546C80.1054 101.384 80.1265 102.851 80.3008 104.086Z" fill="black"/>
<path d="M40.484 80.6133C40.484 80.6133 38.3804 81.0069 36.929 84.1682C35.8141 86.5993 32.0548 89.1055 30.375 90.1363C30.0547 90.3321 29.777 90.5902 29.5581 90.8953C29.3393 91.2003 29.1838 91.5461 29.1009 91.9122C28.7613 93.4148 28.6321 96.2094 30.4772 100.236C33.374 106.547 35.4806 109.323 35.4806 109.323C35.4806 109.323 36.0064 115.634 35.2161 117.488C34.4258 119.342 35.2161 129.472 35.2161 129.472C35.2161 129.472 49.0393 132.105 53.6521 129.472C58.2648 126.84 57.6037 116.674 57.6037 116.674C57.6037 116.674 61.949 125.893 63.5296 126.155L62.6071 121.019C62.6071 121.019 57.4715 115.487 57.198 108.377C57.198 108.377 55.6173 101.925 56.9336 100.212C56.9336 100.212 62.0692 105.744 67.8629 105.621C73.6566 105.498 80.5051 106.279 80.5051 106.279C80.5051 106.279 79.1889 102.072 80.5051 100.486C80.5051 100.486 65.8886 99.8275 63.6498 96.2786C63.6498 96.2786 57.198 91.1429 56.9336 87.7202C56.895 87.0781 56.6935 86.4565 56.348 85.9139C56.0026 85.3713 55.5247 84.9257 54.9593 84.619C54.0634 84.1097 53.0356 83.8805 52.0083 83.9609L49.0333 84.1652C49.0333 84.1652 54.1809 93.2345 53.9165 94.4365C53.6521 95.6385 54.1809 105.234 54.1809 105.234C54.1809 105.234 48.255 92.4561 45.6316 91.0077C43.0082 89.5593 39.9581 83.6183 39.9581 83.6183L40.484 80.6133Z" fill="#2DC84D"/>
<path opacity="0.1" d="M37.5871 94.4365C37.5871 94.4365 40.7484 105.104 42.5905 106.421C44.4326 107.737 55.6263 114.453 58.9199 112.872C58.9199 112.872 59.7102 116.824 58.5262 117.744C58.5262 117.744 46.2476 117.263 46.1484 117.218C46.1484 117.218 38.116 116.163 36.7998 112.214C35.4835 108.266 33.9029 101.546 33.9029 101.546L37.5871 94.4365Z" fill="black"/>
<path d="M54.4454 106.481C54.6993 106.481 54.9051 106.186 54.9051 105.823C54.9051 105.459 54.6993 105.164 54.4454 105.164C54.1914 105.164 53.9856 105.459 53.9856 105.823C53.9856 106.186 54.1914 106.481 54.4454 106.481Z" fill="#BA7855"/>
<path d="M55.7616 111.09C56.0155 111.09 56.2214 110.796 56.2214 110.432C56.2214 110.069 56.0155 109.774 55.7616 109.774C55.5077 109.774 55.3018 110.069 55.3018 110.432C55.3018 110.796 55.5077 111.09 55.7616 111.09Z" fill="#BA7855"/>
<g opacity="0.1">
<path opacity="0.1" d="M36.1387 129.328C36.1387 129.328 35.3483 119.189 36.1387 117.344C36.929 115.499 36.4031 109.179 36.4031 109.179C36.4031 109.179 34.2996 106.415 31.3997 100.092C29.5546 96.0652 29.6868 93.2705 30.0234 91.768C30.1067 91.4016 30.2627 91.0557 30.482 90.7506C30.7014 90.4456 30.9797 90.1876 31.3005 89.992C32.9804 88.9613 36.7397 86.4551 37.8515 84.024C38.6689 82.242 39.6936 81.3375 40.4359 80.8898L40.487 80.5893C40.487 80.5893 38.3834 80.9829 36.932 84.1442C35.8171 86.5753 32.0578 89.0815 30.381 90.1122C30.0602 90.3078 29.7819 90.5658 29.5625 90.8708C29.3431 91.1759 29.1872 91.5218 29.1038 91.8882C28.7643 93.3907 28.6351 96.1854 30.4802 100.212C33.377 106.523 35.4836 109.299 35.4836 109.299C35.4836 109.299 36.0094 115.61 35.2191 117.464C34.4288 119.318 35.2191 129.448 35.2191 129.448C35.2191 129.448 45.0967 131.329 50.9385 130.323C45.0306 131.023 36.1387 129.328 36.1387 129.328Z" fill="black"/>
<path opacity="0.1" d="M53.9165 94.4365C53.7362 95.2479 53.9165 100.02 54.0637 102.941C54.7008 104.242 55.1005 105.101 55.1005 105.101C55.1005 105.101 54.5746 95.4853 54.836 94.3043C55.0854 93.1774 50.4607 84.9135 50.0009 84.0871L49.0423 84.1532C49.0423 84.1532 54.1809 93.2345 53.9165 94.4365Z" fill="black"/>
<path opacity="0.1" d="M68.7974 105.492C63.0037 105.624 57.8681 100.083 57.8681 100.083C57.7128 100.298 57.5996 100.541 57.5345 100.798C59.0371 102.214 63.2441 105.72 67.8749 105.606C73.6686 105.474 80.5171 106.264 80.5171 106.264C80.5171 106.264 80.4901 106.177 80.448 106.027C76.5774 105.633 72.6879 105.454 68.7974 105.492Z" fill="black"/>
<path opacity="0.1" d="M58.5262 116.554C58.5262 116.554 58.5803 117.377 58.5503 118.612C59.9206 121.317 62.4148 125.98 63.5296 126.167L63.3343 125.085C61.4111 122.684 58.5262 116.554 58.5262 116.554Z" fill="black"/>
</g>
<path d="M62.2134 115.237L59.4157 115.838L57.21 116.304L58.394 112.999L59.2174 112.791L60.5005 112.473C60.5005 112.473 62.3456 103.253 66.0328 103.914C69.72 104.576 62.2134 115.237 62.2134 115.237Z" fill="#714B4F"/>
<path opacity="0.1" d="M59.4157 115.826L57.21 116.292L58.394 112.987L59.2174 112.779C59.4016 113.784 59.4681 114.806 59.4157 115.826Z" fill="black"/>
<path d="M37.5871 94.166C37.5871 94.166 40.7484 104.834 42.5905 106.15C44.4326 107.466 55.6263 114.183 58.9199 112.602C58.9199 112.602 59.7102 116.554 58.5262 117.473C58.5262 117.473 46.2476 116.992 46.1484 116.947C46.1484 116.947 38.116 115.892 36.7998 111.944C35.4835 107.995 33.9029 101.276 33.9029 101.276L37.5871 94.166Z" fill="#2DC84D"/>
<path opacity="0.1" d="M41.5387 77.0493C41.5387 77.0493 41.2713 78.08 40.9137 79.5795C41.6443 80.9593 42.8089 82.0601 44.2276 82.7119C45.6463 83.3637 47.2401 83.5301 48.7629 83.1856C48.4473 81.8333 48.5165 80.4811 49.442 79.4083L41.5387 77.0493Z" fill="black"/>
<path d="M47.071 83.1045C50.9977 83.1045 54.1809 79.9212 54.1809 75.9945C54.1809 72.0678 50.9977 68.8846 47.071 68.8846C43.1443 68.8846 39.9611 72.0678 39.9611 75.9945C39.9611 79.9212 43.1443 83.1045 47.071 83.1045Z" fill="#714B4F"/>
<path opacity="0.1" d="M53.2433 74.0383C53.7596 74.1816 54.3002 74.2144 54.83 74.1344C55.9389 73.906 56.7292 72.7792 56.7562 71.6463C56.7451 71.0787 56.6078 70.5207 56.3541 70.0129C56.1005 69.5051 55.7369 69.0601 55.2898 68.7103C54.6888 68.2085 53.9676 67.8509 53.4176 67.2919C52.7655 66.6278 52.411 65.7323 51.9151 64.951C51.0656 63.6518 49.8057 62.6743 48.3361 62.1744C47.2453 61.8047 45.911 61.7627 45.0726 62.556C44.6429 62.9617 44.3905 63.5477 43.9097 63.8902C43.2125 64.3861 42.2689 64.2388 41.4185 64.338C40.6477 64.4565 39.9179 64.763 39.2937 65.2305C38.6695 65.698 38.17 66.3121 37.8395 67.0185C37.1937 68.4494 37.0704 70.0616 37.4909 71.5741C37.6562 72.2202 37.8966 72.8483 38.0739 73.4913C38.4435 74.8316 38.5307 76.238 38.9574 77.5602C39.3841 78.8824 40.2646 80.1746 41.5958 80.5652C41.4905 79.0829 41.783 77.5994 42.4432 76.268C42.5525 75.978 42.7671 75.7397 43.0442 75.6009C43.2818 75.54 43.5309 75.54 43.7684 75.6009C45.4357 75.8481 47.1368 75.5036 48.5765 74.6272C49.0814 74.3267 49.8687 73.272 50.4096 73.1668C51.1007 73.0436 52.5221 73.876 53.2433 74.0383Z" fill="black"/>
<path d="M53.2434 73.7738C53.7596 73.9171 54.3003 73.9499 54.83 73.87C55.9389 73.6416 56.7292 72.5147 56.7563 71.3818C56.7452 70.8142 56.6078 70.2563 56.3541 69.7484C56.1005 69.2406 55.7369 68.7956 55.2898 68.4459C54.6888 67.944 53.9676 67.5864 53.4177 67.0275C52.7656 66.3634 52.411 65.4679 51.9151 64.6866C51.0657 63.3873 49.8057 62.4098 48.3361 61.9099C47.2453 61.5403 45.9111 61.4982 45.0727 62.2915C44.6429 62.6972 44.3905 63.2832 43.9097 63.6258C43.2125 64.1216 42.2689 63.9744 41.4185 64.0735C40.6477 64.192 39.9179 64.4986 39.2937 64.9661C38.6695 65.4336 38.17 66.0477 37.8395 66.754C37.1966 68.1815 37.0733 69.7888 37.4909 71.2976C37.6562 71.9437 37.8966 72.5718 38.0739 73.2149C38.4435 74.5551 38.5307 75.9615 38.9574 77.2837C39.3841 78.6059 40.2646 79.8981 41.5958 80.2887C41.4905 78.8064 41.783 77.3229 42.4432 75.9915C42.5525 75.7015 42.7671 75.4633 43.0442 75.3244C43.2818 75.2635 43.5309 75.2635 43.7685 75.3244C45.4357 75.5716 47.1368 75.2272 48.5765 74.3508C49.0814 74.0503 49.8687 72.9955 50.4096 72.8903C51.1008 72.7791 52.5221 73.6145 53.2434 73.7738Z" fill="#503F43"/>
<path d="M223.299 0H68.0131V185.712H223.299V0Z" fill="#FAFBFC"/>
<path d="M223.299 0H68.0131V6.29556H223.299V0Z" fill="#2DC84D"/>
<path d="M88.9973 75.676H202.314" stroke="#7983A6" stroke-miterlimit="10"/>
<g opacity="0.5">
<path opacity="0.5" d="M88.9973 63.3463H90.8003" stroke="#7983A6" stroke-miterlimit="10"/>
<path opacity="0.5" d="M94.3403 63.3463H198.742" stroke="#7983A6" stroke-miterlimit="10" stroke-dasharray="11.78 11.78"/>
<path opacity="0.5" d="M200.511 63.3463H202.315" stroke="#7983A6" stroke-miterlimit="10"/>
</g>
<g opacity="0.5">
<path opacity="0.5" d="M88.9973 51.0196H90.8003" stroke="#7983A6" stroke-miterlimit="10"/>
<path opacity="0.5" d="M94.3403 51.0196H198.742" stroke="#7983A6" stroke-miterlimit="10" stroke-dasharray="11.78 11.78"/>
<path opacity="0.5" d="M200.511 51.0196H202.315" stroke="#7983A6" stroke-miterlimit="10"/>
</g>
<g opacity="0.5">
<path opacity="0.5" d="M88.9973 38.6899H90.8003" stroke="#7983A6" stroke-miterlimit="10"/>
<path opacity="0.5" d="M94.3403 38.6899H198.742" stroke="#7983A6" stroke-miterlimit="10" stroke-dasharray="11.78 11.78"/>
<path opacity="0.5" d="M200.511 38.6899H202.315" stroke="#7983A6" stroke-miterlimit="10"/>
</g>
<g opacity="0.5">
<path opacity="0.5" d="M88.9973 26.3633H90.8003" stroke="#7983A6" stroke-miterlimit="10"/>
<path opacity="0.5" d="M94.3403 26.3633H198.742" stroke="#7983A6" stroke-miterlimit="10" stroke-dasharray="11.78 11.78"/>
<path opacity="0.5" d="M200.511 26.3633H202.315" stroke="#7983A6" stroke-miterlimit="10"/>
</g>
<g opacity="0.3">
<path opacity="0.3" d="M102.769 51.0196H94.6378V75.676H102.769V51.0196Z" fill="#6C63FF"/>
</g>
<path d="M125.458 38.5577H117.326V75.8052H125.458V38.5577Z" fill="#2DC84D"/>
<g opacity="0.3">
<path opacity="0.3" d="M148.149 63.2141H140.017V75.9344H148.149V63.2141Z" fill="#6C63FF"/>
</g>
<path d="M170.837 25.9696H162.705V75.8082H170.837V25.9696Z" fill="#2DC84D"/>
<g opacity="0.3">
<path opacity="0.3" d="M193.525 38.0348H185.393V75.676H193.525V38.0348Z" fill="#6C63FF"/>
</g>
<path d="M98.7037 83.411C99.8621 83.411 100.801 82.4719 100.801 81.3135C100.801 80.155 99.8621 79.2159 98.7037 79.2159C97.5452 79.2159 96.6061 80.155 96.6061 81.3135C96.6061 82.4719 97.5452 83.411 98.7037 83.411Z" fill="#2DC84D"/>
<path d="M121.524 83.411C122.682 83.411 123.621 82.4719 123.621 81.3135C123.621 80.155 122.682 79.2159 121.524 79.2159C120.365 79.2159 119.426 80.155 119.426 81.3135C119.426 82.4719 120.365 83.411 121.524 83.411Z" fill="#2DC84D"/>
<path d="M144.344 83.411C145.503 83.411 146.442 82.4719 146.442 81.3135C146.442 80.155 145.503 79.2159 144.344 79.2159C143.186 79.2159 142.247 80.155 142.247 81.3135C142.247 82.4719 143.186 83.411 144.344 83.411Z" fill="#2DC84D"/>
<path d="M167.164 83.411C168.323 83.411 169.262 82.4719 169.262 81.3135C169.262 80.155 168.323 79.2159 167.164 79.2159C166.006 79.2159 165.067 80.155 165.067 81.3135C165.067 82.4719 166.006 83.411 167.164 83.411Z" fill="#2DC84D"/>
<path d="M189.985 83.411C191.143 83.411 192.082 82.4719 192.082 81.3135C192.082 80.155 191.143 79.2159 189.985 79.2159C188.826 79.2159 187.887 80.155 187.887 81.3135C187.887 82.4719 188.826 83.411 189.985 83.411Z" fill="#2DC84D"/>
<path d="M88.9973 154.892H202.314" stroke="#7983A6" stroke-miterlimit="10"/>
<g opacity="0.5">
<path opacity="0.5" d="M88.9973 142.562H90.8003" stroke="#7983A6" stroke-miterlimit="10"/>
<path opacity="0.5" d="M94.3403 142.562H198.742" stroke="#7983A6" stroke-miterlimit="10" stroke-dasharray="11.78 11.78"/>
<path opacity="0.5" d="M200.511 142.562H202.315" stroke="#7983A6" stroke-miterlimit="10"/>
</g>
<g opacity="0.5">
<path opacity="0.5" d="M88.9973 130.236H90.8003" stroke="#7983A6" stroke-miterlimit="10"/>
<path opacity="0.5" d="M94.3403 130.236H198.742" stroke="#7983A6" stroke-miterlimit="10" stroke-dasharray="11.78 11.78"/>
<path opacity="0.5" d="M200.511 130.236H202.315" stroke="#7983A6" stroke-miterlimit="10"/>
</g>
<g opacity="0.5">
<path opacity="0.5" d="M88.9973 117.906H90.8003" stroke="#7983A6" stroke-miterlimit="10"/>
<path opacity="0.5" d="M94.3403 117.906H198.742" stroke="#7983A6" stroke-miterlimit="10" stroke-dasharray="11.78 11.78"/>
<path opacity="0.5" d="M200.511 117.906H202.315" stroke="#7983A6" stroke-miterlimit="10"/>
</g>
<g opacity="0.5">
<path opacity="0.5" d="M88.9973 105.579H90.8003" stroke="#7983A6" stroke-miterlimit="10"/>
<path opacity="0.5" d="M94.3403 105.579H198.742" stroke="#7983A6" stroke-miterlimit="10" stroke-dasharray="11.78 11.78"/>
<path opacity="0.5" d="M200.511 105.579H202.315" stroke="#7983A6" stroke-miterlimit="10"/>
</g>
<path d="M102.769 130.236H94.6378V154.892H102.769V130.236Z" fill="#2DC84D"/>
<path d="M125.458 130.103H117.326V155.021H125.458V130.103Z" fill="#2DC84D"/>
<path d="M148.149 142.433H140.017V155.153H148.149V142.433Z" fill="#2DC84D"/>
<path d="M170.837 105.186H162.705V155.024H170.837V105.186Z" fill="#2DC84D"/>
<path d="M224.477 75.7812H216.345V113.422H224.477V75.7812Z" fill="#2DC84D"/>
<g opacity="0.7">
<path opacity="0.7" d="M98.7037 162.627C99.8621 162.627 100.801 161.688 100.801 160.529C100.801 159.371 99.8621 158.432 98.7037 158.432C97.5452 158.432 96.6061 159.371 96.6061 160.529C96.6061 161.688 97.5452 162.627 98.7037 162.627Z" fill="#2DC84D"/>
</g>
<g opacity="0.7">
<path opacity="0.7" d="M121.524 162.627C122.682 162.627 123.621 161.688 123.621 160.529C123.621 159.371 122.682 158.432 121.524 158.432C120.365 158.432 119.426 159.371 119.426 160.529C119.426 161.688 120.365 162.627 121.524 162.627Z" fill="#2DC84D"/>
</g>
<g opacity="0.7">
<path opacity="0.7" d="M144.344 162.627C145.503 162.627 146.442 161.688 146.442 160.529C146.442 159.371 145.503 158.432 144.344 158.432C143.186 158.432 142.247 159.371 142.247 160.529C142.247 161.688 143.186 162.627 144.344 162.627Z" fill="#2DC84D"/>
</g>
<g opacity="0.7">
<path opacity="0.7" d="M167.164 162.627C168.323 162.627 169.262 161.688 169.262 160.529C169.262 159.371 168.323 158.432 167.164 158.432C166.006 158.432 165.067 159.371 165.067 160.529C165.067 161.688 166.006 162.627 167.164 162.627Z" fill="#2DC84D"/>
</g>
<g opacity="0.7">
<path opacity="0.7" d="M189.985 162.627C191.143 162.627 192.082 161.688 192.082 160.529C192.082 159.371 191.143 158.432 189.985 158.432C188.826 158.432 187.887 159.371 187.887 160.529C187.887 161.688 188.826 162.627 189.985 162.627Z" fill="#2DC84D"/>
</g>
<path d="M239.337 108.698L237.14 108.443L220.312 106.487C210.098 103.259 216.558 98.343 216.558 98.343L223.359 104.804C225.321 105.198 233.014 104.281 236.461 103.839C237.495 103.704 238.147 103.614 238.147 103.614L239.337 108.698Z" fill="#FDC2CC"/>
<path d="M255.825 85.4214C255.825 85.4214 251.405 81.8514 244.776 93.4118C238.147 104.972 236.617 103.1 236.617 103.1C236.617 103.1 237.978 108.209 237.296 109.221C237.296 109.221 241.885 108.882 243.586 109.221C245.287 109.561 255.825 96.2996 255.825 96.2996C255.825 96.2996 261.267 88.811 255.825 85.4214Z" fill="#2DC84D"/>
<defs>
<linearGradient id="paint0_linear" x1="235.364" y1="187.566" x2="235.364" y2="61.5253" gradientUnits="userSpaceOnUse">
<stop stop-color="#808080" stop-opacity="0.25"/>
<stop offset="0.54" stop-color="#808080" stop-opacity="0.12"/>
<stop offset="1" stop-color="#808080" stop-opacity="0.1"/>
</linearGradient>
<linearGradient id="paint1_linear" x1="20101.1" y1="103814" x2="20101.1" y2="48512.5" gradientUnits="userSpaceOnUse">
<stop stop-color="#808080" stop-opacity="0.25"/>
<stop offset="0.54" stop-color="#808080" stop-opacity="0.12"/>
<stop offset="1" stop-color="#808080" stop-opacity="0.1"/>
</linearGradient>
</defs>
</svg>
