<svg width="35" height="35" viewBox="0 0 35 35" fill="none" xmlns="http://www.w3.org/2000/svg">
<path fill-rule="evenodd" clip-rule="evenodd" d="M5.65641 2.73972C6.47688 1.91925 7.58968 1.45831 8.75 1.45831H20.4167C20.8034 1.45831 21.1744 1.61196 21.4479 1.88545L30.1979 10.6354C30.4714 10.9089 30.625 11.2799 30.625 11.6666V29.1666C30.625 30.327 30.1641 31.4398 29.3436 32.2602C28.5231 33.0807 27.4103 33.5416 26.25 33.5416H8.75C7.58968 33.5416 6.47688 33.0807 5.65641 32.2602C4.83594 31.4398 4.375 30.327 4.375 29.1666V5.83331C4.375 4.67299 4.83594 3.56019 5.65641 2.73972ZM8.75 4.37498C8.36323 4.37498 7.99229 4.52862 7.7188 4.80212C7.44531 5.07561 7.29167 5.44654 7.29167 5.83331V29.1666C7.29167 29.5534 7.44531 29.9244 7.7188 30.1978C7.99229 30.4713 8.36323 30.625 8.75 30.625H26.25C26.6368 30.625 27.0077 30.4713 27.2812 30.1978C27.5547 29.9244 27.7083 29.5534 27.7083 29.1666V12.2707L19.8126 4.37498H8.75Z" fill="#727272"/>
<path fill-rule="evenodd" clip-rule="evenodd" d="M20.4167 1.45831C21.2221 1.45831 21.875 2.11123 21.875 2.91665V10.2083H29.1667C29.9721 10.2083 30.625 10.8612 30.625 11.6666C30.625 12.4721 29.9721 13.125 29.1667 13.125H20.4167C19.6113 13.125 18.9583 12.4721 18.9583 11.6666V2.91665C18.9583 2.11123 19.6113 1.45831 20.4167 1.45831Z" fill="#727272"/>
<path fill-rule="evenodd" clip-rule="evenodd" d="M10.2083 18.9583C10.2083 18.1529 10.8613 17.5 11.6667 17.5H23.3333C24.1387 17.5 24.7917 18.1529 24.7917 18.9583C24.7917 19.7637 24.1387 20.4166 23.3333 20.4166H11.6667C10.8613 20.4166 10.2083 19.7637 10.2083 18.9583Z" fill="#727272"/>
<path fill-rule="evenodd" clip-rule="evenodd" d="M10.2083 24.7916C10.2083 23.9862 10.8613 23.3333 11.6667 23.3333H23.3333C24.1387 23.3333 24.7917 23.9862 24.7917 24.7916C24.7917 25.5971 24.1387 26.25 23.3333 26.25H11.6667C10.8613 26.25 10.2083 25.5971 10.2083 24.7916Z" fill="#727272"/>
<path fill-rule="evenodd" clip-rule="evenodd" d="M10.2083 13.125C10.2083 12.3196 10.8613 11.6666 11.6667 11.6666H14.5833C15.3887 11.6666 16.0417 12.3196 16.0417 13.125C16.0417 13.9304 15.3887 14.5833 14.5833 14.5833H11.6667C10.8613 14.5833 10.2083 13.9304 10.2083 13.125Z" fill="#727272"/>
</svg>
